{
    "output": {
        "blocklist": [],
        "equalizer": {
            "balance": 0.0,
            "bypass": false,
            "input-gain": 0.0,
            "left": {
                "band0": {
                    "frequency": 100.0,
                    "gain": 6.0,
                    "mode": "RLC (BT)",
                    "mute": false,
                    "q": 0.15,
                    "slope": "x1",
                    "solo": false,
                    "type": "Off"
                }
            },
            "mode": "IIR",
            "num-bands": 1,
            "output-gain": -9.0,
            "pitch-left": 0.0,
            "pitch-right": 0.0,
            "right": {
                "band0": {
                    "frequency": 100.0,
                    "gain": 6.0,
                    "mode": "RLC (BT)",
                    "mute": false,
                    "q": 0.15,
                    "slope": "x1",
                    "solo": false,
                    "type": "Off"
                }
            },
            "split-channels": false
        },
        "plugins_order": [
            "equalizer"
        ]
    }
}
